    0.9394289194E-07    0.5444249099E-22    0.4286318043E-22   -0.8000000000E+01
    0.1894646192E-06    0.4466120791E-21    0.3516227614E-21   -0.8000000000E+01
    0.2865917161E-06    0.1545741573E-20    0.1216980208E-20   -0.8000000000E+01
    0.3853511631E-06    0.3757646286E-20    0.2958439134E-20   -0.8000000000E+01
    0.4857703940E-06    0.7527295561E-20    0.5926328812E-20   -0.8000000000E+01
    0.5878773037E-06    0.1334153660E-19    0.1050395124E-19   -0.8000000000E+01
    0.6917002558E-06    0.2173198963E-19    0.1710985878E-19   -0.8000000000E+01
    0.7972680908E-06    0.3327811539E-19    0.2620026983E-19   -0.8000000000E+01
    0.9046101337E-06    0.4861046874E-19    0.3827163022E-19   -0.8000000000E+01
    0.1013756202E-05    0.6841414734E-19    0.5386332869E-19   -0.8000000000E+01
    0.1124736616E-05    0.9343244747E-19    0.7356057545E-19   -0.8000000000E+01
    0.1237582203E-05    0.1244707380E-18    0.9799745166E-19   -0.8000000000E+01
    0.1352324310E-05    0.1624005649E-18    0.1278601418E-18   -0.8000000000E+01
    0.1468994812E-05    0.2081639995E-18    0.1638903574E-18   -0.8000000000E+01
    0.1587626116E-05    0.2627782440E-18    0.2068889613E-18   -0.8000000000E+01
    0.1708251177E-05    0.3273405079E-18    0.2577198098E-18   -0.8000000000E+01
    0.1830903502E-05    0.4030331722E-18    0.3173138163E-18   -0.8000000000E+01
    0.1955617163E-05    0.4911292553E-18    0.3866732570E-18   -0.8000000000E+01
    0.2082426803E-05    0.5929981989E-18    0.4668763244E-18   -0.8000000000E+01
    0.2211367648E-05    0.7101119915E-18    0.5590819498E-18   -0.8000000000E+01
    0.2342475515E-05    0.8440516470E-18    0.6645349035E-18   -0.8000000000E+01
    0.2475786825E-05    0.9965140598E-18    0.7845711940E-18   -0.8000000000E+01
    0.2611338608E-05    0.1169319256E-17    0.9206237731E-18   -0.8000000000E+01
    0.2749168519E-05    0.1364418064E-17    0.1074228580E-17   -0.8000000000E+01
    0.2889314846E-05    0.1583900223E-17    0.1247030925E-17   -0.8000000000E+01
    0.3031816518E-05    0.1830002963E-17    0.1440792239E-17   -0.8000000000E+01
    0.3176713120E-05    0.2105120070E-17    0.1657397221E-17   -0.8000000000E+01
    0.3324044902E-05    0.2411811476E-17    0.1898861378E-17   -0.8000000000E+01
    0.3473852791E-05    0.2752813387E-17    0.2167339012E-17   -0.8000000000E+01
    0.3626178400E-05    0.3131048998E-17    0.2465131641E-17   -0.8000000000E+01
    0.3781064044E-05    0.3549639808E-17    0.2794696923E-17   -0.8000000000E+01
    0.3938552748E-05    0.4011917580E-17    0.3158658067E-17   -0.8000000000E+01
    0.4098688259E-05    0.4521436979E-17    0.3559813775E-17   -0.8000000000E+01
    0.4261515060E-05    0.5081988917E-17    0.4001148764E-17   -0.8000000000E+01
    0.4427078382E-05    0.5697614659E-17    0.4485844864E-17   -0.8000000000E+01
    0.4595424215E-05    0.6372620713E-17    0.5017292741E-17   -0.8000000000E+01
    0.4766599325E-05    0.7111594566E-17    0.5599104301E-17   -0.8000000000E+01
    0.4940651260E-05    0.7919421289E-17    0.6235125739E-17   -0.8000000000E+01
    0.5117628369E-05    0.8801301086E-17    0.6929451377E-17   -0.8000000000E+01
    0.5297579814E-05    0.9762767808E-17    0.7686438238E-17   -0.8000000000E+01
    0.5480555583E-05    0.1080970851E-16    0.8510721441E-17   -0.8000000000E+01
    0.5666606503E-05    0.1194838410E-16    0.9407230452E-17   -0.8000000000E+01
    0.5855784256E-05    0.1318545111E-16    0.1038120624E-16   -0.8000000000E+01
    0.6048141393E-05    0.1452798470E-16    0.1143821940E-16   -0.8000000000E+01
    0.6243731347E-05    0.1598350295E-16    0.1258418924E-16   -0.8000000000E+01
    0.6442608451E-05    0.1755999246E-16    0.1382540397E-16   -0.8000000000E+01
    0.6644827949E-05    0.1926593537E-16    0.1516854197E-16   -0.8000000000E+01
    0.6850446015E-05    0.2111033788E-16    0.1662069426E-16   -0.8000000000E+01
    0.7059519766E-05    0.2310276038E-16    0.1818938820E-16   -0.8000000000E+01
    0.7272107279E-05    0.2525334916E-16    0.1988261244E-16   -0.8000000000E+01
    0.7488267609E-05    0.2757286989E-16    0.2170884338E-16   -0.8000000000E+01
    0.7708060800E-05    0.3007274302E-16    0.2367707288E-16   -0.8000000000E+01
    0.7931547908E-05    0.3276508094E-16    0.2579683771E-16   -0.8000000000E+01
    0.8158791015E-05    0.3566272738E-16    0.2807825041E-16   -0.8000000000E+01
    0.8389853244E-05    0.3877929882E-16    0.3053203198E-16   -0.8000000000E+01
    0.8624798782E-05    0.4212922819E-16    0.3316954630E-16   -0.8000000000E+01
    0.8863692892E-05    0.4572781101E-16    0.3600283639E-16   -0.8000000000E+01
    0.9106601935E-05    0.4959125398E-16    0.3904466273E-16   -0.8000000000E+01
    0.9353593387E-05    0.5373672624E-16    0.4230854362E-16   -0.8000000000E+01
    0.9604735860E-05    0.5818241339E-16    0.4580879771E-16   -0.8000000000E+01
    0.9860099116E-05    0.6294757451E-16    0.4956058885E-16   -0.8000000000E+01
    0.1011975409E-04    0.6805260219E-16    0.5357997342E-16   -0.8000000000E+01
    0.1038377291E-04    0.7351908587E-16    0.5788395017E-16   -0.8000000000E+01
    0.1065222892E-04    0.7936987856E-16    0.6249051287E-16   -0.8000000000E+01
    0.1092519670E-04    0.8562916723E-16    0.6741870567E-16   -0.8000000000E+01
    0.1120275205E-04    0.9232254695E-16    0.7268868087E-16   -0.8000000000E+01
    0.1148497210E-04    0.9947709903E-16    0.7832176205E-16   -0.8000000000E+01
    0.1177193522E-04    0.1071214734E-15    0.8434050684E-16   -0.8000000000E+01
    0.1206372115E-04    0.1152859755E-15    0.9076877744E-16   -0.8000000000E+01
    0.1236041092E-04    0.1240026576E-15    0.9763181050E-16   -0.8000000000E+01
    0.1266208697E-04    0.1333054154E-15    0.1049562952E-15   -0.8000000000E+01
    0.1296883307E-04    0.1432300893E-15    0.1127704508E-15   -0.8000000000E+01
    0.1328073446E-04    0.1538145717E-15    0.1211041138E-15   -0.8000000000E+01
    0.1359787776E-04    0.1650989198E-15    0.1299888238E-15   -0.8000000000E+01
    0.1392035108E-04    0.1771254743E-15    0.1394579194E-15   -0.8000000000E+01
    0.1424824399E-04    0.1899389843E-15    0.1495466353E-15   -0.8000000000E+01
    0.1458164758E-04    0.2035867399E-15    0.1602922071E-15   -0.8000000000E+01
    0.1492065446E-04    0.2181187103E-15    0.1717339798E-15   -0.8000000000E+01
    0.1526535880E-04    0.2335876906E-15    0.1839135236E-15   -0.8000000000E+01
    0.1561585635E-04    0.2500494560E-15    0.1968747554E-15   -0.8000000000E+01
    0.1597224449E-04    0.2675629240E-15    0.2106640668E-15   -0.8000000000E+01
    0.1633462220E-04    0.2861903253E-15    0.2253304574E-15   -0.8000000000E+01
    0.1670309015E-04    0.3059973845E-15    0.2409256786E-15   -0.8000000000E+01
    0.1707775069E-04    0.3270535092E-15    0.2575043816E-15   -0.8000000000E+01
    0.1745870790E-04    0.3494319901E-15    0.2751242757E-15   -0.8000000000E+01
    0.1784606761E-04    0.3732102115E-15    0.2938462938E-15   -0.8000000000E+01
    0.1823993741E-04    0.3984698730E-15    0.3137347657E-15   -0.8000000000E+01
    0.1864042671E-04    0.4252972227E-15    0.3348576036E-15   -0.8000000000E+01
    0.1904764678E-04    0.4537833029E-15    0.3572864961E-15   -0.8000000000E+01
    0.1946171071E-04    0.4840242094E-15    0.3810971082E-15   -0.8000000000E+01
    0.1988273354E-04    0.5161213635E-15    0.4063693013E-15   -0.8000000000E+01
    0.2031083223E-04    0.5501817994E-15    0.4331873560E-15   -0.8000000000E+01
    0.2074612567E-04    0.5863184660E-15    0.4616402081E-15   -0.8000000000E+01
    0.2118873481E-04    0.6246505452E-15    0.4918217059E-15   -0.8000000000E+01
    0.2163878258E-04    0.6653037870E-15    0.5238308659E-15   -0.8000000000E+01
    0.2209639400E-04    0.7084108620E-15    0.5577721562E-15   -0.8000000000E+01
    0.2256169619E-04    0.7541117328E-15    0.5937557871E-15   -0.8000000000E+01
    0.2303481840E-04    0.8025540449E-15    0.6318980181E-15   -0.8000000000E+01
    0.2351589206E-04    0.8538935381E-15    0.6723214837E-15   -0.8000000000E+01
    0.2400505080E-04    0.9082944798E-15    0.7151555329E-15   -0.8000000000E+01
    0.2450243051E-04    0.9659301214E-15    0.7605365904E-15   -0.8000000000E+01
    0.2500816935E-04    0.1026983178E-14    0.8086085324E-15   -0.8000000000E+01
    0.2552240779E-04    0.1091646333E-14    0.8595230841E-15   -0.8000000000E+01
    0.2604528870E-04    0.1160122772E-14    0.9134402444E-15   -0.8000000000E+01
    0.2657695732E-04    0.1232626743E-14    0.9705287197E-15   -0.8000000000E+01
    0.2711756134E-04    0.1309384141E-14    0.1030966392E-14   -0.8000000000E+01
    0.2766725093E-04    0.1390633135E-14    0.1094940806E-14   -0.8000000000E+01
    0.2822617878E-04    0.1476624817E-14    0.1162649685E-14   -0.8000000000E+01
    0.2879450016E-04    0.1567623891E-14    0.1234301471E-14   -0.8000000000E+01
    0.2937237293E-04    0.1663909393E-14    0.1310115893E-14   -0.8000000000E+01
    0.2995995763E-04    0.1765775458E-14    0.1390324573E-14   -0.8000000000E+01
    0.3055741747E-04    0.1873532118E-14    0.1475171647E-14   -0.8000000000E+01
    0.3116491841E-04    0.1987506144E-14    0.1564914435E-14   -0.8000000000E+01
    0.3178262922E-04    0.2108041935E-14    0.1659824146E-14   -0.8000000000E+01
    0.3241072148E-04    0.2235502453E-14    0.1760186598E-14   -0.8000000000E+01
    0.3304936966E-04    0.2370270206E-14    0.1866303007E-14   -0.8000000000E+01
    0.3369875118E-04    0.2512748278E-14    0.1978490796E-14   -0.8000000000E+01
    0.3435904642E-04    0.2663361425E-14    0.2097084450E-14   -0.8000000000E+01
    0.3503043880E-04    0.2822557211E-14    0.2222436421E-14   -0.8000000000E+01
    0.3571311482E-04    0.2990807224E-14    0.2354918077E-14   -0.8000000000E+01
    0.3640726411E-04    0.3168608336E-14    0.2494920698E-14   -0.8000000000E+01
    0.3711307952E-04    0.3356484039E-14    0.2642856541E-14   -0.8000000000E+01
    0.3783075708E-04    0.3554985855E-14    0.2799159918E-14   -0.8000000000E+01
    0.3856049618E-04    0.3764694806E-14    0.2964288393E-14   -0.8000000000E+01
    0.3930249951E-04    0.3986222975E-14    0.3138723980E-14   -0.8000000000E+01
    0.4005697319E-04    0.4220215137E-14    0.3322974448E-14   -0.8000000000E+01
    0.4082412681E-04    0.4467350485E-14    0.3517574671E-14   -0.8000000000E+01
    0.4160417346E-04    0.4728344438E-14    0.3723088051E-14   -0.8000000000E+01
    0.4239732984E-04    0.5003950549E-14    0.3940108030E-14   -0.8000000000E+01
    0.4320381627E-04    0.5294962507E-14    0.4169259657E-14   -0.8000000000E+01
    0.4402385677E-04    0.5602216249E-14    0.4411201254E-14   -0.8000000000E+01
    0.4485767914E-04    0.5926592178E-14    0.4666626168E-14   -0.8000000000E+01
    0.4570551501E-04    0.6269017498E-14    0.4936264610E-14   -0.8000000000E+01
    0.4656759989E-04    0.6630468672E-14    0.5220885582E-14   -0.8000000000E+01
    0.4744417325E-04    0.7011974005E-14    0.5521298921E-14   -0.8000000000E+01
    0.4833547859E-04    0.7414616363E-14    0.5838357437E-14   -0.8000000000E+01
    0.4924176351E-04    0.7839536035E-14    0.6172959173E-14   -0.8000000000E+01
    0.5016327974E-04    0.8287933737E-14    0.6526049758E-14   -0.8000000000E+01
    0.5110028329E-04    0.8761073786E-14    0.6898624928E-14   -0.8000000000E+01
    0.5205303442E-04    0.9260287424E-14    0.7291733119E-14   -0.8000000000E+01
    0.5302179781E-04    0.9786976322E-14    0.7706478256E-14   -0.8000000000E+01
    0.5400684255E-04    0.1034261627E-13    0.8144022630E-14   -0.8000000000E+01
    0.5500844228E-04    0.1092876104E-13    0.8605589973E-14   -0.8000000000E+01
    0.5602687523E-04    0.1154704649E-13    0.9092468662E-14   -0.8000000000E+01
    0.5706242430E-04    0.1219919483E-13    0.9606015094E-14   -0.8000000000E+01
    0.5811537715E-04    0.1288701914E-13    0.1014765725E-13   -0.8000000000E+01
    0.5918602627E-04    0.1361242813E-13    0.1071889843E-13   -0.8000000000E+01
    0.6027466907E-04    0.1437743112E-13    0.1132132119E-13   -0.8000000000E+01
    0.6138160797E-04    0.1518414329E-13    0.1195659147E-13   -0.8000000000E+01
    0.6250715044E-04    0.1603479121E-13    0.1262646297E-13   -0.8000000000E+01
    0.6365160915E-04    0.1693171866E-13    0.1333278171E-13   -0.8000000000E+01
    0.6481530202E-04    0.1787739275E-13    0.1407749084E-13   -0.8000000000E+01
    0.6599855229E-04    0.1887441030E-13    0.1486263572E-13   -0.8000000000E+01
    0.6720168866E-04    0.1992550465E-13    0.1569036925E-13   -0.8000000000E+01
    0.6842504533E-04    0.2103355279E-13    0.1656295746E-13   -0.8000000000E+01
    0.6966896214E-04    0.2220158277E-13    0.1748278543E-13   -0.8000000000E+01
    0.7093378463E-04    0.2343278163E-13    0.1845236345E-13   -0.8000000000E+01
    0.7221986414E-04    0.2473050368E-13    0.1947433359E-13   -0.8000000000E+01
    0.7352755793E-04    0.2609827915E-13    0.2055147653E-13   -0.8000000000E+01
    0.7485722925E-04    0.2753982341E-13    0.2168671876E-13   -0.8000000000E+01
    0.7620924747E-04    0.2905904655E-13    0.2288314023E-13   -0.8000000000E+01
    0.7758398816E-04    0.3066006354E-13    0.2414398227E-13   -0.8000000000E+01
    0.7898183319E-04    0.3234720488E-13    0.2547265598E-13   -0.8000000000E+01
    0.8040317086E-04    0.3412502780E-13    0.2687275112E-13   -0.8000000000E+01
    0.8184839601E-04    0.3599832803E-13    0.2834804537E-13   -0.8000000000E+01
    0.8331791008E-04    0.3797215220E-13    0.2990251403E-13   -0.8000000000E+01
    0.8481212130E-04    0.4005181090E-13    0.3154034043E-13   -0.8000000000E+01
    0.8633144472E-04    0.4224289236E-13    0.3326592658E-13   -0.8000000000E+01
    0.8787630240E-04    0.4455127686E-13    0.3508390464E-13   -0.8000000000E+01
    0.8944712346E-04    0.4698315192E-13    0.3699914882E-13   -0.8000000000E+01
    0.9104434426E-04    0.4954502823E-13    0.3901678796E-13   -0.8000000000E+01
    0.9266840848E-04    0.5224375642E-13    0.4114221875E-13   -0.8000000000E+01
    0.9431976726E-04    0.5508654469E-13    0.4338111961E-13   -0.8000000000E+01
    0.9599887933E-04    0.5808097738E-13    0.4573946537E-13   -0.8000000000E+01
    0.9770621110E-04    0.6123503445E-13    0.4822354251E-13   -0.8000000000E+01
    0.9944223686E-04    0.6455711200E-13    0.5083996550E-13   -0.8000000000E+01
    0.1012074388E-03    0.6805604384E-13    0.5359569359E-13   -0.8000000000E+01
    0.1030023074E-03    0.7174112420E-13    0.5649804913E-13   -0.8000000000E+01
    0.1048273411E-03    0.7562213154E-13    0.5955473560E-13   -0.8000000000E+01
    0.1066830469E-03    0.7970935367E-13    0.6277385813E-13   -0.8000000000E+01
    0.1085699403E-03    0.8401361415E-13    0.6616394399E-13   -0.8000000000E+01
    0.1104885455E-03    0.8854629998E-13    0.6973396454E-13   -0.8000000000E+01
    0.1124393954E-03    0.9331939082E-13    0.7349335800E-13   -0.8000000000E+01
    0.1144230319E-03    0.9834548967E-13    0.7745205386E-13   -0.8000000000E+01
    0.1164400061E-03    0.1036378551E-12    0.8162049844E-13   -0.8000000000E+01
    0.1184908782E-03    0.1092104352E-12    0.8600968116E-13   -0.8000000000E+01
    0.1205762179E-03    0.1150779034E-12    0.9063116312E-13   -0.8000000000E+01
    0.1226966046E-03    0.1212556955E-12    0.9549710680E-13   -0.8000000000E+01
    0.1248526271E-03    0.1277600498E-12    0.1006203061E-12   -0.8000000000E+01
    0.1270448845E-03    0.1346080482E-12    0.1060142209E-12   -0.8000000000E+01
    0.1292739857E-03    0.1418176598E-12    0.1116930096E-12   -0.8000000000E+01
    0.1315405499E-03    0.1494077869E-12    0.1176715663E-12   -0.8000000000E+01
    0.1338452068E-03    0.1573983131E-12    0.1239655589E-12   -0.8000000000E+01
    0.1361885964E-03    0.1658101543E-12    0.1305914680E-12   -0.8000000000E+01
    0.1385713699E-03    0.1746653117E-12    0.1375666311E-12   -0.8000000000E+01
    0.1409941890E-03    0.1839869281E-12    0.1449092840E-12   -0.8000000000E+01
    0.1434577268E-03    0.1937993469E-12    0.1526386098E-12   -0.8000000000E+01
    0.1459626676E-03    0.2041281739E-12    0.1607747864E-12   -0.8000000000E+01
    0.1485097074E-03    0.2150003427E-12    0.1693390391E-12   -0.8000000000E+01
    0.1510995535E-03    0.2264441832E-12    0.1783536925E-12   -0.8000000000E+01
    0.1537329254E-03    0.2384894937E-12    0.1878422297E-12   -0.8000000000E+01
    0.1564105546E-03    0.2511676169E-12    0.1978293509E-12   -0.8000000000E+01
    0.1591331849E-03    0.2645115191E-12    0.2083410366E-12   -0.8000000000E+01
    0.1619015727E-03    0.2785558747E-12    0.2194046140E-12   -0.8000000000E+01
    0.1647164869E-03    0.2933371536E-12    0.2310488253E-12   -0.8000000000E+01
    0.1675787095E-03    0.3088937147E-12    0.2433039023E-12   -0.8000000000E+01
    0.1704890356E-03    0.3252659025E-12    0.2562016424E-12   -0.8000000000E+01
    0.1734482735E-03    0.3424961502E-12    0.2697754891E-12   -0.8000000000E+01
    0.1764572454E-03    0.3606290871E-12    0.2840606185E-12   -0.8000000000E+01
    0.1795167871E-03    0.3797116521E-12    0.2990940271E-12   -0.8000000000E+01
    0.1826277484E-03    0.3997932123E-12    0.3149146258E-12   -0.8000000000E+01
    0.1857909935E-03    0.4209256889E-12    0.3315633398E-12   -0.8000000000E+01
    0.1890074013E-03    0.4431636884E-12    0.3490832127E-12   -0.8000000000E+01
    0.1922778650E-03    0.4665646414E-12    0.3675195127E-12   -0.8000000000E+01
    0.1956032932E-03    0.4911889476E-12    0.3869198515E-12   -0.8000000000E+01
    0.1989846097E-03    0.5171001296E-12    0.4073343029E-12   -0.8000000000E+01
    0.2024227536E-03    0.5443649931E-12    0.4288155287E-12   -0.8000000000E+01
    0.2059186802E-03    0.5730537966E-12    0.4514189161E-12   -0.8000000000E+01
    0.2094733605E-03    0.6032404291E-12    0.4752027136E-12   -0.8000000000E+01
    0.2130877819E-03    0.6350025973E-12    0.5002281809E-12   -0.8000000000E+01
    0.2167629484E-03    0.6684220219E-12    0.5265597437E-12   -0.8000000000E+01
    0.2204998810E-03    0.7035846448E-12    0.5542651581E-12   -0.8000000000E+01
    0.2242996178E-03    0.7405808462E-12    0.5834156804E-12   -0.8000000000E+01
    0.2281632142E-03    0.7795056734E-12    0.6140862474E-12   -0.8000000000E+01
    0.2320917434E-03    0.8204590809E-12    0.6463556669E-12   -0.8000000000E+01
    0.2360862968E-03    0.8635461833E-12    0.6803068186E-12   -0.8000000000E+01
    0.2401479840E-03    0.9088775208E-12    0.7160268611E-12   -0.8000000000E+01
    0.2442779333E-03    0.9565693385E-12    0.7536074543E-12   -0.8000000000E+01
    0.2484772918E-03    0.1006743880E-11    0.7931449885E-12   -0.8000000000E+01
    0.2527472262E-03    0.1059529698E-11    0.8347408338E-12   -0.8000000000E+01
    0.2570889224E-03    0.1115061974E-11    0.8785015883E-12   -0.8000000000E+01
    0.2615035867E-03    0.1173482865E-11    0.9245393571E-12   -0.8000000000E+01
    0.2659924453E-03    0.1234941860E-11    0.9729720265E-12   -0.8000000000E+01
    0.2705567451E-03    0.1299596157E-11    0.1023923567E-11   -0.8000000000E+01
    0.2751977540E-03    0.1367611060E-11    0.1077524347E-11   -0.8000000000E+01
    0.2799167613E-03    0.1439160397E-11    0.1133911459E-11   -0.8000000000E+01
    0.2847150778E-03    0.1514426956E-11    0.1193229068E-11   -0.8000000000E+01
    0.2895940363E-03    0.1593602949E-11    0.1255628774E-11   -0.8000000000E+01
    0.2945549923E-03    0.1676890493E-11    0.1321269998E-11   -0.8000000000E+01
    0.2995993237E-03    0.1764502124E-11    0.1390320381E-11   -0.8000000000E+01
    0.3047284318E-03    0.1856661329E-11    0.1462956207E-11   -0.8000000000E+01
    0.3099437414E-03    0.1953603110E-11    0.1539362851E-11   -0.8000000000E+01
    0.3152467012E-03    0.2055574576E-11    0.1619735245E-11   -0.8000000000E+01
    0.3206387843E-03    0.2162835569E-11    0.1704278369E-11   -0.8000000000E+01
    0.3261214885E-03    0.2275659311E-11    0.1793207767E-11   -0.8000000000E+01
    0.3316963369E-03    0.2394333099E-11    0.1886750098E-11   -0.8000000000E+01
    0.3373648780E-03    0.2519159025E-11    0.1985143695E-11   -0.8000000000E+01
    0.3431286865E-03    0.2650454738E-11    0.2088639178E-11   -0.8000000000E+01
    0.3489893635E-03    0.2788554241E-11    0.2197500078E-11   -0.8000000000E+01
    0.3549485369E-03    0.2933808735E-11    0.2312003505E-11   -0.8000000000E+01
    0.3610078622E-03    0.3086587498E-11    0.2432440846E-11   -0.8000000000E+01
    0.3671690225E-03    0.3247278820E-11    0.2559118498E-11   -0.8000000000E+01
    0.3734337293E-03    0.3416290973E-11    0.2692358640E-11   -0.8000000000E+01
    0.3798037228E-03    0.3594053244E-11    0.2832500047E-11   -0.8000000000E+01
    0.3862807725E-03    0.3781017009E-11    0.2979898940E-11   -0.8000000000E+01
    0.3928666777E-03    0.3977656872E-11    0.3134929889E-11   -0.8000000000E+01
    0.3995632678E-03    0.4184471856E-11    0.3297986747E-11   -0.8000000000E+01
    0.4063724029E-03    0.4401986656E-11    0.3469483649E-11   -0.8000000000E+01
    0.4132959747E-03    0.4630752961E-11    0.3649856057E-11   -0.8000000000E+01
    0.4203359063E-03    0.4871350836E-11    0.3839561847E-11   -0.8000000000E+01
    0.4274941533E-03    0.5124390183E-11    0.4039082468E-11   -0.8000000000E+01
    0.4347727042E-03    0.5390512270E-11    0.4248924156E-11   -0.8000000000E+01
    0.4421735808E-03    0.5670391345E-11    0.4469619198E-11   -0.8000000000E+01
    0.4496988390E-03    0.5964736323E-11    0.4701727285E-11   -0.8000000000E+01
    0.4573505691E-03    0.6274292573E-11    0.4945836907E-11   -0.8000000000E+01
    0.4651308968E-03    0.6599843785E-11    0.5202566850E-11   -0.8000000000E+01
    0.4730419832E-03    0.6942213938E-11    0.5472567729E-11   -0.8000000000E+01
    0.4810860259E-03    0.7302269367E-11    0.5756523648E-11   -0.8000000000E+01
    0.4892652595E-03    0.7680920939E-11    0.6055153911E-11   -0.8000000000E+01
    0.4975819560E-03    0.8079126336E-11    0.6369214825E-11   -0.8000000000E+01
    0.5060384256E-03    0.8497892460E-11    0.6699501610E-11   -0.8000000000E+01
    0.5146370175E-03    0.8938277957E-11    0.7046850402E-11   -0.8000000000E+01
    0.5233801201E-03    0.9401395871E-11    0.7412140337E-11   -0.8000000000E+01
    0.5322701623E-03    0.9888416438E-11    0.7796295790E-11   -0.8000000000E+01
    0.5413096133E-03    0.1040057002E-10    0.8200288660E-11   -0.8000000000E+01
    0.5505009844E-03    0.1093915018E-10    0.8625140860E-11   -0.8000000000E+01
    0.5598468288E-03    0.1150551695E-10    0.9071926848E-11   -0.8000000000E+01
    0.5693497424E-03    0.1210110019E-10    0.9541776331E-11   -0.8000000000E+01
    0.5790123652E-03    0.1272740325E-10    0.1003587713E-10   -0.8000000000E+01
    0.5888373812E-03    0.1338600665E-10    0.1055547814E-10   -0.8000000000E+01
    0.5988275196E-03    0.1407857210E-10    0.1110189246E-10   -0.8000000000E+01
    0.6089855557E-03    0.1480684664E-10    0.1167650074E-10   -0.8000000000E+01
    0.6193143110E-03    0.1557266701E-10    0.1228075459E-10   -0.8000000000E+01
    0.6298166548E-03    0.1637796428E-10    0.1291618025E-10   -0.8000000000E+01
    0.6404955045E-03    0.1722476863E-10    0.1358438244E-10   -0.8000000000E+01
    0.6513538265E-03    0.1811521450E-10    0.1428704838E-10   -0.8000000000E+01
    0.6623946370E-03    0.1905154589E-10    0.1502595200E-10   -0.8000000000E+01
    0.6736210030E-03    0.2003612198E-10    0.1580295844E-10   -0.8000000000E+01
    0.6850360430E-03    0.2107142305E-10    0.1662002869E-10   -0.8000000000E+01
    0.6966429279E-03    0.2216005669E-10    0.1747922456E-10   -0.8000000000E+01
    0.7084448820E-03    0.2330476429E-10    0.1838271381E-10   -0.8000000000E+01
    0.7204451837E-03    0.2450842794E-10    0.1933277564E-10   -0.8000000000E+01
    0.7326471664E-03    0.2577407763E-10    0.2033180634E-10   -0.8000000000E+01
    0.7450542196E-03    0.2710489880E-10    0.2138232539E-10   -0.8000000000E+01
    0.7576697899E-03    0.2850424035E-10    0.2248698172E-10   -0.8000000000E+01
    0.7704973816E-03    0.2997562297E-10    0.2364856039E-10   -0.8000000000E+01
    0.7835405580E-03    0.3152274799E-10    0.2486998957E-10   -0.8000000000E+01
    0.7968029424E-03    0.3314950661E-10    0.2615434789E-10   -0.8000000000E+01
    0.8102882188E-03    0.3485998960E-10    0.2750487217E-10   -0.8000000000E+01
    0.8240001332E-03    0.3665849757E-10    0.2892496551E-10   -0.8000000000E+01
    0.8379424946E-03    0.3854955171E-10    0.3041820589E-10   -0.8000000000E+01
    0.8521191759E-03    0.4053790506E-10    0.3198835508E-10   -0.8000000000E+01
    0.8665341151E-03    0.4262855441E-10    0.3363936812E-10   -0.8000000000E+01
    0.8811913167E-03    0.4482675277E-10    0.3537540326E-10   -0.8000000000E+01
    0.8960948520E-03    0.4713802250E-10    0.3720083231E-10   -0.8000000000E+01
    0.9112488610E-03    0.4956816910E-10    0.3912025167E-10   -0.8000000000E+01
    0.9266575533E-03    0.5212329572E-10    0.4113849387E-10   -0.8000000000E+01
    0.9423252092E-03    0.5480981837E-10    0.4326063964E-10   -0.8000000000E+01
    0.9582561809E-03    0.5763448196E-10    0.4549203069E-10   -0.8000000000E+01
    0.9744548937E-03    0.6060437714E-10    0.4783828309E-10   -0.8000000000E+01
    0.9909258475E-03    0.6372695799E-10    0.5030530136E-10   -0.8000000000E+01
    0.1007673618E-02    0.6701006061E-10    0.5289929333E-10   -0.8000000000E+01
    0.1024702856E-02    0.7046192270E-10    0.5562678535E-10   -0.8000000000E+01
    0.1042018294E-02    0.7409120412E-10    0.5849463953E-10   -0.8000000000E+01
    0.1059624740E-02    0.7790700845E-10    0.6151006968E-10   -0.8000000000E+01
    0.1077527087E-02    0.8191890574E-10    0.6468066082E-10   -0.8000000000E+01
    0.1095730306E-02    0.8613695636E-10    0.6801438671E-10   -0.8000000000E+01
    0.1114239454E-02    0.9057173609E-10    0.7151963101E-10   -0.8000000000E+01
    0.1133059674E-02    0.9523436249E-10    0.7520520809E-10   -0.8000000000E+01
    0.1152196192E-02    0.1001365226E-09    0.7908038422E-10   -0.8000000000E+01
    0.1171654325E-02    0.1052905022E-09    0.8315490212E-10   -0.8000000000E+01
    0.1191439477E-02    0.1107092161E-09    0.8743900425E-10   -0.8000000000E+01
    0.1211557146E-02    0.1164062409E-09    0.9194345965E-10   -0.8000000000E+01
    0.1232012918E-02    0.1223958480E-09    0.9667958930E-10   -0.8000000000E+01
    0.1252812477E-02    0.1286930401E-09    0.1016592964E-09   -0.8000000000E+01
    0.1273961600E-02    0.1353135878E-09    0.1068950945E-09   -0.8000000000E+01
    0.1295466163E-02    0.1422740692E-09    0.1124001402E-09   -0.8000000000E+01
    0.1317332138E-02    0.1495919113E-09    0.1181882650E-09   -0.8000000000E+01
    0.1339565600E-02    0.1572854333E-09    0.1242740107E-09   -0.8000000000E+01
    0.1362172725E-02    0.1653738918E-09    0.1306726657E-09   -0.8000000000E+01
    0.1385159793E-02    0.1738775296E-09    0.1374003031E-09   -0.8000000000E+01
    0.1408533189E-02    0.1828176252E-09    0.1444738211E-09   -0.8000000000E+01
    0.1432299406E-02    0.1922165463E-09    0.1519109853E-09   -0.8000000000E+01
    0.1456465046E-02    0.2020978054E-09    0.1597304733E-09   -0.8000000000E+01
    0.1481036821E-02    0.2124861181E-09    0.1679519211E-09   -0.8000000000E+01
    0.1506021558E-02    0.2234074645E-09    0.1765959733E-09   -0.8000000000E+01
    0.1531426197E-02    0.2348891543E-09    0.1856843337E-09   -0.8000000000E+01
    0.1557257795E-02    0.2469598941E-09    0.1952398200E-09   -0.8000000000E+01
    0.1583523527E-02    0.2596498595E-09    0.2052864209E-09   -0.8000000000E+01
    0.1610230689E-02    0.2729907692E-09    0.2158493565E-09   -0.8000000000E+01
    0.1637386701E-02    0.2870159646E-09    0.2269551418E-09   -0.8000000000E+01
    0.1664999106E-02    0.3017604924E-09    0.2386316520E-09   -0.8000000000E+01
    0.1693075574E-02    0.3172611917E-09    0.2509081929E-09   -0.8000000000E+01
    0.1721623904E-02    0.3335567853E-09    0.2638155744E-09   -0.8000000000E+01
    0.1750652027E-02    0.3506879764E-09    0.2773861879E-09   -0.8000000000E+01
    0.1780168006E-02    0.3686975490E-09    0.2916540866E-09   -0.8000000000E+01
    0.1810180041E-02    0.3876304749E-09    0.3066550719E-09   -0.8000000000E+01
    0.1840696467E-02    0.4075340246E-09    0.3224267811E-09   -0.8000000000E+01
    0.1871725763E-02    0.4284578852E-09    0.3390087848E-09   -0.8000000000E+01
    0.1903276548E-02    0.4504542837E-09    0.3564426830E-09   -0.8000000000E+01
    0.1935357585E-02    0.4735781160E-09    0.3747722097E-09   -0.8000000000E+01
    0.1967977787E-02    0.4978870838E-09    0.3940433447E-09   -0.8000000000E+01
    0.2001146215E-02    0.5234418375E-09    0.4143044263E-09   -0.8000000000E+01
    0.2034872082E-02    0.5503061262E-09    0.4356062725E-09   -0.8000000000E+01
    0.2069164758E-02    0.5785469566E-09    0.4580023107E-09   -0.8000000000E+01
    0.2104033767E-02    0.6082347584E-09    0.4815487070E-09   -0.8000000000E+01
    0.2139488797E-02    0.6394435591E-09    0.5063045122E-09   -0.8000000000E+01
    0.2175539695E-02    0.6722511676E-09    0.5323318042E-09   -0.8000000000E+01
    0.2212196477E-02    0.7067393667E-09    0.5596958485E-09   -0.8000000000E+01
    0.2249469325E-02    0.7429941162E-09    0.5884652573E-09   -0.8000000000E+01
    0.2287368592E-02    0.7811057651E-09    0.6187121632E-09   -0.8000000000E+01
    0.2325904807E-02    0.8211692760E-09    0.6505124009E-09   -0.8000000000E+01
    0.2365088675E-02    0.8632844595E-09    0.6839456952E-09   -0.8000000000E+01
    0.2404931079E-02    0.9075562222E-09    0.7190958593E-09   -0.8000000000E+01
    0.2445443089E-02    0.9540948252E-09    0.7560510099E-09   -0.8000000000E+01
    0.2486635956E-02    0.1003016158E-08    0.7949037798E-09   -0.8000000000E+01
    0.2528521124E-02    0.1054442024E-08    0.8357515574E-09   -0.8000000000E+01
    0.2571110229E-02    0.1108500443E-08    0.8786967272E-09   -0.8000000000E+01
    0.2614415099E-02    0.1165325967E-08    0.9238469221E-09   -0.8000000000E+01
    0.2658447766E-02    0.1225060012E-08    0.9713153021E-09   -0.8000000000E+01
    0.2703220461E-02    0.1287851210E-08    0.1021220829E-08   -0.8000000000E+01
    0.2748745620E-02    0.1353855773E-08    0.1073688565E-08   -0.8000000000E+01
    0.2795035890E-02    0.1423237881E-08    0.1128849991E-08   -0.8000000000E+01
    0.2842104129E-02    0.1496170089E-08    0.1186843332E-08   -0.8000000000E+01
    0.2889963413E-02    0.1572833748E-08    0.1247813902E-08   -0.8000000000E+01
    0.2938627036E-02    0.1653419457E-08    0.1311914470E-08   -0.8000000000E+01
    0.2988108515E-02    0.1738127532E-08    0.1379305639E-08   -0.8000000000E+01
    0.3038421597E-02    0.1827168501E-08    0.1450156253E-08   -0.8000000000E+01
    0.3089580257E-02    0.1920763622E-08    0.1524643814E-08   -0.8000000000E+01
    0.3141598707E-02    0.2019145429E-08    0.1602954929E-08   -0.8000000000E+01
    0.3194491396E-02    0.2122558305E-08    0.1685285776E-08   -0.8000000000E+01
    0.3248273016E-02    0.2231259086E-08    0.1771842593E-08   -0.8000000000E+01
    0.3302958509E-02    0.2345517692E-08    0.1862842203E-08   -0.8000000000E+01
    0.3358563063E-02    0.2465617792E-08    0.1958512540E-08   -0.8000000000E+01
    0.3415102127E-02    0.2591857504E-08    0.2059093236E-08   -0.8000000000E+01
    0.3472591404E-02    0.2724550127E-08    0.2164836206E-08   -0.8000000000E+01
    0.3531046866E-02    0.2864024914E-08    0.2276006293E-08   -0.8000000000E+01
    0.3590484749E-02    0.3010627880E-08    0.2392881915E-08   -0.8000000000E+01
    0.3650921565E-02    0.3164722656E-08    0.2515755772E-08   -0.8000000000E+01
    0.3712374102E-02    0.3326691378E-08    0.2644935575E-08   -0.8000000000E+01
    0.3774859430E-02    0.3496935635E-08    0.2780744813E-08   -0.8000000000E+01
    0.3838394908E-02    0.3675877445E-08    0.2923523570E-08   -0.8000000000E+01
    0.3902998184E-02    0.3863960302E-08    0.3073629363E-08   -0.8000000000E+01
    0.3968687203E-02    0.4061650258E-08    0.3231438043E-08   -0.8000000000E+01
    0.4035480215E-02    0.4269437071E-08    0.3397344746E-08   -0.8000000000E+01
    0.4103395771E-02    0.4487835404E-08    0.3571764853E-08   -0.8000000000E+01
    0.4172452739E-02    0.4717386091E-08    0.3755135058E-08   -0.8000000000E+01
    0.4242670301E-02    0.4958657462E-08    0.3947914442E-08   -0.8000000000E+01
    0.4314067963E-02    0.5212246736E-08    0.4150585628E-08   -0.8000000000E+01
    0.4386665558E-02    0.5478781484E-08    0.4363655984E-08   -0.8000000000E+01
    0.4460483251E-02    0.5758921169E-08    0.4587658892E-08   -0.8000000000E+01
    0.4535541549E-02    0.6053358759E-08    0.4823155087E-08   -0.8000000000E+01
    0.4611861302E-02    0.6362822423E-08    0.5070734053E-08   -0.8000000000E+01
    0.4689463709E-02    0.6688077315E-08    0.5331015492E-08   -0.8000000000E+01
    0.4768370329E-02    0.7029927446E-08    0.5604650892E-08   -0.8000000000E+01
    0.4848603079E-02    0.7389217648E-08    0.5892325129E-08   -0.8000000000E+01
    0.4930184247E-02    0.7766835640E-08    0.6194758198E-08   -0.8000000000E+01
    0.5013136495E-02    0.8163714198E-08    0.6512707008E-08   -0.8000000000E+01
    0.5097482866E-02    0.8580833432E-08    0.6846967271E-08   -0.8000000000E+01
    0.5183246790E-02    0.9019223180E-08    0.7198375492E-08   -0.8000000000E+01
    0.5270452091E-02    0.9479965519E-08    0.7567811060E-08   -0.8000000000E+01
    0.5359122993E-02    0.9964197408E-08    0.7956198446E-08   -0.8000000000E+01
    0.5449284128E-02    0.1047311346E-07    0.8364509511E-08   -0.8000000000E+01
    0.5540960540E-02    0.1100796885E-07    0.8793765929E-08   -0.8000000000E+01
    0.5634177696E-02    0.1157008237E-07    0.9245041758E-08   -0.8000000000E+01
    0.5728961491E-02    0.1216083965E-07    0.9719466107E-08   -0.8000000000E+01
    0.5825338254E-02    0.1278169653E-07    0.1021822596E-07   -0.8000000000E+01
    0.5923334756E-02    0.1343418259E-07    0.1074256913E-07   -0.8000000000E+01
    0.6022978220E-02    0.1411990488E-07    0.1129380742E-07   -0.8000000000E+01
    0.6124296324E-02    0.1484055183E-07    0.1187331983E-07   -0.8000000000E+01
    0.6227317215E-02    0.1559789733E-07    0.1248255608E-07   -0.8000000000E+01
    0.6332069508E-02    0.1639380505E-07    0.1312304014E-07   -0.8000000000E+01
    0.6438582303E-02    0.1723023298E-07    0.1379637414E-07   -0.8000000000E+01
    0.6546885188E-02    0.1810923815E-07    0.1450424227E-07   -0.8000000000E+01
    0.6657008246E-02    0.1903298163E-07    0.1524841507E-07   -0.8000000000E+01
    0.6768982069E-02    0.2000373379E-07    0.1603075378E-07   -0.8000000000E+01
    0.6882837761E-02    0.2102387973E-07    0.1685321504E-07   -0.8000000000E+01
    0.6998606949E-02    0.2209592513E-07    0.1771785576E-07   -0.8000000000E+01
    0.7116321792E-02    0.2322250227E-07    0.1862683822E-07   -0.8000000000E+01
    0.7236014991E-02    0.2440637639E-07    0.1958243553E-07   -0.8000000000E+01
    0.7357719792E-02    0.2565045241E-07    0.2058703725E-07   -0.8000000000E+01
    0.7481470005E-02    0.2695778188E-07    0.2164315538E-07   -0.8000000000E+01
    0.7607300004E-02    0.2833157041E-07    0.2275343061E-07   -0.8000000000E+01
    0.7735244744E-02    0.2977518536E-07    0.2392063893E-07   -0.8000000000E+01
    0.7865339766E-02    0.3129216399E-07    0.2514769857E-07   -0.8000000000E+01
    0.7997621208E-02    0.3288622192E-07    0.2643767723E-07   -0.8000000000E+01
    0.8132125815E-02    0.3456126215E-07    0.2779379975E-07   -0.8000000000E+01
    0.8268890951E-02    0.3632138440E-07    0.2921945618E-07   -0.8000000000E+01
    0.8407954607E-02    0.3817089498E-07    0.3071821024E-07   -0.8000000000E+01
    0.8549355413E-02    0.4011431715E-07    0.3229380815E-07   -0.8000000000E+01
    0.8693132647E-02    0.4215640196E-07    0.3395018803E-07   -0.8000000000E+01
    0.8839326250E-02    0.4430213963E-07    0.3569148969E-07   -0.8000000000E+01
    0.8987976830E-02    0.4655677158E-07    0.3752206496E-07   -0.8000000000E+01
    0.9139125681E-02    0.4892580291E-07    0.3944648851E-07   -0.8000000000E+01
    0.9292814790E-02    0.5141501566E-07    0.4146956933E-07   -0.8000000000E+01
    0.9449086848E-02    0.5403048256E-07    0.4359636259E-07   -0.7981544174E+01
    0.9607985266E-02    0.5677858160E-07    0.4583218237E-07   -0.7960728717E+01
    0.9769554184E-02    0.5966601126E-07    0.4818261481E-07   -0.7939929642E+01
    0.9933838482E-02    0.6269980647E-07    0.5065353204E-07   -0.7919147247E+01
    0.1010088380E-01    0.6588735543E-07    0.5325110688E-07   -0.7898381840E+01
    0.1027073653E-01    0.6923641719E-07    0.5598182795E-07   -0.7877633727E+01
    0.1044344386E-01    0.7275514010E-07    0.5885251624E-07   -0.7856903227E+01
    0.1061905377E-01    0.7645208127E-07    0.6187034190E-07   -0.7836190668E+01
    0.1079761504E-01    0.8033622684E-07    0.6504284194E-07   -0.7815496381E+01
    0.1097917727E-01    0.8441701335E-07    0.6837793912E-07   -0.7794820703E+01
    0.1116379090E-01    0.8870435013E-07    0.7188396178E-07   -0.7774163981E+01
    0.1135150720E-01    0.9320864282E-07    0.7556966409E-07   -0.7753526563E+01
    0.1154237832E-01    0.9794081797E-07    0.7944424851E-07   -0.7732908812E+01
    0.1173645729E-01    0.1029123489E-06    0.8351738843E-07   -0.7712311101E+01
    0.1193379801E-01    0.1081352830E-06    0.8779925170E-07   -0.7691733798E+01
    0.1213445530E-01    0.1136222698E-06    0.9230052659E-07   -0.7671177291E+01
    0.1233848491E-01    0.1193865913E-06    0.9703244833E-07   -0.7650641976E+01
    0.1254594351E-01    0.1254421928E-06    0.1020068264E-06   -0.7630128253E+01
    0.1275688872E-01    0.1318037163E-06    0.1072360743E-06   -0.7609636525E+01
    0.1297137915E-01    0.1384865344E-06    0.1127332406E-06   -0.7589167218E+01
    0.1318947438E-01    0.1455067868E-06    0.1185120411E-06   -0.7568720760E+01
    0.1341123499E-01    0.1528814179E-06    0.1245868925E-06   -0.7548297587E+01
    0.1363672257E-01    0.1606282170E-06    0.1309729486E-06   -0.7527898140E+01
    0.1386599978E-01    0.1687658596E-06    0.1376861385E-06   -0.7507522886E+01
    0.1409913030E-01    0.1773139510E-06    0.1447432047E-06   -0.7487172291E+01
    0.1433617888E-01    0.1862930727E-06    0.1521617455E-06   -0.7466846824E+01
    0.1457721139E-01    0.1957248298E-06    0.1599602594E-06   -0.7446546987E+01
    0.1482229476E-01    0.2056319019E-06    0.1681581883E-06   -0.7426273267E+01
    0.1507149708E-01    0.2160380957E-06    0.1767759690E-06   -0.7406026179E+01
    0.1532488759E-01    0.2269684004E-06    0.1858350821E-06   -0.7385806253E+01
    0.1558253665E-01    0.2384490459E-06    0.1953581040E-06   -0.7365614012E+01
    0.1584451586E-01    0.2505075637E-06    0.2053687661E-06   -0.7345450013E+01
    0.1611089797E-01    0.2631728504E-06    0.2158920096E-06   -0.7325314809E+01
    0.1638175698E-01    0.2764752351E-06    0.2269540501E-06   -0.7305208971E+01
    0.1665716815E-01    0.2904465493E-06    0.2385824421E-06   -0.7285133094E+01
    0.1693720796E-01    0.3051202003E-06    0.2508061447E-06   -0.7265087768E+01
    0.1722195422E-01    0.3205312486E-06    0.2636555967E-06   -0.7245073613E+01
    0.1751148601E-01    0.3367164883E-06    0.2771627883E-06   -0.7225091251E+01
    0.1780588377E-01    0.3537145318E-06    0.2913613429E-06   -0.7205141331E+01
    0.1810522928E-01    0.3715658989E-06    0.3062865988E-06   -0.7185224511E+01
    0.1840960569E-01    0.3903131091E-06    0.3219756958E-06   -0.7165341464E+01
    0.1871909755E-01    0.4100007796E-06    0.3384676677E-06   -0.7145492881E+01
    0.1903379083E-01    0.4306757269E-06    0.3558035380E-06   -0.7125679470E+01
    0.1935377295E-01    0.4523870741E-06    0.3740264213E-06   -0.7105901955E+01
    0.1967913280E-01    0.4751863624E-06    0.3931816294E-06   -0.7086161081E+01
    0.2000996075E-01    0.4991276690E-06    0.4133167816E-06   -0.7066457607E+01
    0.2034634870E-01    0.5242677299E-06    0.4344819234E-06   -0.7046792312E+01
    0.2068839010E-01    0.5506660684E-06    0.4567296492E-06   -0.7027165999E+01
    0.2103617996E-01    0.5783851301E-06    0.4801152303E-06   -0.7007579487E+01
    0.2138981490E-01    0.6074904244E-06    0.5046967523E-06   -0.6988033620E+01
    0.2174939314E-01    0.6380506724E-06    0.5305352549E-06   -0.6968529254E+01
    0.2211501457E-01    0.6701379615E-06    0.5576948843E-06   -0.6949067278E+01
    0.2248678075E-01    0.7038279079E-06    0.5862430487E-06   -0.6929648597E+01
    0.2286479496E-01    0.7391998268E-06    0.6162505848E-06   -0.6910274144E+01
    0.2324916220E-01    0.7763369098E-06    0.6477919286E-06   -0.6890944875E+01
    0.2363998924E-01    0.8153264115E-06    0.6809452995E-06   -0.6871661769E+01
    0.2403738466E-01    0.8562598442E-06    0.7157928916E-06   -0.6852425839E+01
    0.2444145883E-01    0.8992331824E-06    0.7524210702E-06   -0.6833238113E+01
    0.2485232400E-01    0.9443470763E-06    0.7909205878E-06   -0.6814099655E+01
    0.2527009431E-01    0.9917070754E-06    0.8313868029E-06   -0.6795011558E+01
    0.2569488581E-01    0.1041423863E-05    0.8739199113E-06   -0.6775974943E+01
    0.2612681649E-01    0.1093613500E-05    0.9186251894E-06   -0.6756990962E+01
    0.2656600635E-01    0.1148397683E-05    0.9656132538E-06   -0.6738060803E+01
    0.2701257737E-01    0.1205904011E-05    0.1015000323E-05   -0.6719185681E+01
    0.2746665361E-01    0.1266266268E-05    0.1066908506E-05   -0.6700366850E+01
    0.2792836121E-01    0.1329624715E-05    0.1121466094E-05   -0.6681605599E+01
    0.2839782842E-01    0.1396126396E-05    0.1178807874E-05   -0.6662903257E+01
    0.2887518565E-01    0.1465925464E-05    0.1239075449E-05   -0.6644261188E+01
    0.2936056550E-01    0.1539183514E-05    0.1302417586E-05   -0.6625680795E+01
    0.2985410281E-01    0.1616069932E-05    0.1368990571E-05   -0.6607163531E+01
    0.3035593467E-01    0.1696762269E-05    0.1438958587E-05   -0.6588710885E+01
    0.3086620048E-01    0.1781446622E-05    0.1512494108E-05   -0.6570324392E+01
    0.3138504198E-01    0.1870318035E-05    0.1589778312E-05   -0.6552005636E+01
    0.3191260331E-01    0.1963580921E-05    0.1671001521E-05   -0.6533756255E+01
    0.3244903101E-01    0.2061449504E-05    0.1756363650E-05   -0.6515577929E+01
    0.3299447409E-01    0.2164148273E-05    0.1846074689E-05   -0.6497472397E+01
    0.3354908406E-01    0.2271912468E-05    0.1940355203E-05   -0.6479441451E+01
    0.3411301499E-01    0.2384988577E-05    0.2039436861E-05   -0.6461486946E+01
    0.3468642354E-01    0.2503634867E-05    0.2143562987E-05   -0.6443610793E+01
    0.3526946897E-01    0.2628121924E-05    0.2252989128E-05   -0.6425814967E+01
    0.3586231327E-01    0.2758733234E-05    0.2367983684E-05   -0.6408101513E+01
    0.3646512109E-01    0.2895765778E-05    0.2488828512E-05   -0.6390472538E+01
    0.3707805991E-01    0.3039530656E-05    0.2615819627E-05   -0.6372930231E+01
    0.3770129998E-01    0.3190353744E-05    0.2749267870E-05   -0.6355476850E+01
    0.3833501442E-01    0.3348576373E-05    0.2889499658E-05   -0.6338114735E+01
    0.3897937928E-01    0.3514556044E-05    0.3036857752E-05   -0.6320846312E+01
    0.3963457355E-01    0.3688667173E-05    0.3191702051E-05   -0.6303674090E+01
    0.4030077923E-01    0.3871301863E-05    0.3354410442E-05   -0.6286600676E+01
    0.4097818139E-01    0.4062870723E-05    0.3525379681E-05   -0.6269628769E+01
    0.4166696819E-01    0.4263803710E-05    0.3705026316E-05   -0.6252761172E+01
    0.4236733096E-01    0.4474551013E-05    0.3893787658E-05   -0.6236000794E+01
    0.4307946427E-01    0.4695583980E-05    0.4092122801E-05   -0.6219350663E+01
    0.4380356592E-01    0.4927396078E-05    0.4300513671E-05   -0.6202813918E+01
    0.4453983706E-01    0.5170503899E-05    0.4519466149E-05   -0.6186393829E+01
    0.4528848222E-01    0.5425448209E-05    0.4749511237E-05   -0.6170093798E+01
    0.4604970936E-01    0.5692795042E-05    0.4991206270E-05   -0.6153917370E+01
    0.4682372993E-01    0.5973136840E-05    0.5245136192E-05   -0.6137868234E+01
    0.4761075895E-01    0.6267093647E-05    0.5511914902E-05   -0.6121950242E+01
    0.4841101504E-01    0.6575314347E-05    0.5792186641E-05   -0.6106167411E+01
    0.4922472049E-01    0.6898477961E-05    0.6086627454E-05   -0.6090523934E+01
    0.5005210135E-01    0.7237294994E-05    0.6395946731E-05   -0.6075024198E+01
    0.5089338745E-01    0.7592508847E-05    0.6720888795E-05   -0.6059672787E+01
    0.5174881248E-01    0.7964897277E-05    0.7062234573E-05   -0.6044474501E+01
    0.5261861406E-01    0.8355273934E-05    0.7420803353E-05   -0.6029434367E+01
    0.5350303381E-01    0.8764489946E-05    0.7797454610E-05   -0.6014557656E+01
    0.5440231742E-01    0.9193435587E-05    0.8193089921E-05   -0.5999849905E+01
    0.5531671468E-01    0.9643041999E-05    0.8608654942E-05   -0.5985316922E+01
    0.5624647961E-01    0.1011428300E-04    0.9045141524E-05   -0.5970964822E+01
    0.5719187047E-01    0.1060817695E-04    0.9503589863E-05   -0.5956800038E+01
    0.5815314988E-01    0.1112578873E-04    0.9985090797E-05   -0.5942829345E+01
    0.5913058488E-01    0.1166823174E-04    0.1049078818E-04   -0.5929059901E+01
    0.6012444696E-01    0.1223667005E-04    0.1102188133E-04   -0.5915499251E+01
    0.6113501223E-01    0.1283232058E-04    0.1157962770E-04   -0.5902155390E+01
    0.6216256138E-01    0.1345645541E-04    0.1216534545E-04   -0.5889036770E+01
    0.6320737987E-01    0.1411040418E-04    0.1278041642E-04   -0.5876152355E+01
    0.6426975792E-01    0.1479555653E-04    0.1342628893E-04   -0.5863511668E+01
    0.6534999065E-01    0.1551336474E-04    0.1410448094E-04   -0.5851124825E+01
    0.6644837813E-01    0.1626534637E-04    0.1481658321E-04   -0.5839002606E+01
    0.6756522547E-01    0.1705308712E-04    0.1556426262E-04   -0.5827156494E+01
    0.6870084291E-01    0.1787824364E-04    0.1634926568E-04   -0.5815598773E+01
    0.6985554592E-01    0.1874254665E-04    0.1717342209E-04   -0.5804342581E+01
    0.7102965525E-01    0.1964780404E-04    0.1803864858E-04   -0.5793401996E+01
    0.7222349704E-01    0.2059590411E-04    0.1894695274E-04   -0.5782792151E+01
    0.7343740294E-01    0.2158881901E-04    0.1990043719E-04   -0.5772529334E+01
    0.7467171014E-01    0.2262860825E-04    0.2090130378E-04   -0.5762631103E+01
    0.7592676151E-01    0.2371742234E-04    0.2195185799E-04   -0.5753116448E+01
    0.7720290569E-01    0.2485750663E-04    0.2305451356E-04   -0.5744005944E+01
    0.7850049718E-01    0.2605120521E-04    0.2421179729E-04   -0.5735321948E+01
    0.7981989641E-01    0.2730096508E-04    0.2542635389E-04   -0.5727088795E+01
    0.8116146990E-01    0.2860934032E-04    0.2670095128E-04   -0.5719333087E+01
    0.8252559032E-01    0.2997899659E-04    0.2803848585E-04   -0.5712083950E+01
    0.8391263660E-01    0.3141271565E-04    0.2944198806E-04   -0.5705373403E+01
    0.8532299404E-01    0.3291340014E-04    0.3091462817E-04   -0.5699236750E+01
    0.8675705441E-01    0.3448407852E-04    0.3245972229E-04   -0.5693713061E+01
    0.8821521607E-01    0.3612791015E-04    0.3408073852E-04   -0.5688845746E+01
    0.8969788408E-01    0.3784819064E-04    0.3578130346E-04   -0.5684683227E+01
    0.9120547030E-01    0.3964835728E-04    0.3756520879E-04   -0.5681279772E+01
    0.9273839351E-01    0.4153199481E-04    0.3943641827E-04   -0.5678696472E+01
    0.9429707953E-01    0.4350284126E-04    0.4139907482E-04   -0.5677002477E+01
    0.9588196135E-01    0.4556479407E-04    0.4345750799E-04   -0.5676276501E+01
    0.9749347921E-01    0.4772191648E-04    0.4561624154E-04   -0.5676608672E+01
    0.9913208078E-01    0.4997844398E-04    0.4788000148E-04   -0.5678102926E+01
    0.1007982212E+00    0.5233879121E-04    0.5025372407E-04   -0.5680879956E+01
    0.1024923634E+00    0.5480755888E-04    0.5274256463E-04   -0.5685081154E+01
    0.1042149778E+00    0.5738954113E-04    0.5535190561E-04   -0.5690873498E+01
    0.1059665431E+00    0.6008973297E-04    0.5808736659E-04   -0.5698456455E+01
    0.1077475458E+00    0.6291333810E-04    0.6095481266E-04   -0.5708070784E+01
    0.1095584806E+00    0.6586577696E-04    0.6396036445E-04   -0.5720010987E+01
    0.1113998506E+00    0.6895269501E-04    0.6711040803E-04   -0.5734642717E+01
    0.1132721672E+00    0.7217997132E-04    0.7041160478E-04   -0.5752427712E+01
    0.1151759506E+00    0.7555372749E-04    0.7387090244E-04   -0.5773961033E+01
    0.1171117296E+00    0.7908033680E-04    0.7749554528E-04   -0.5800027863E+01
    0.1190800420E+00    0.8276643367E-04    0.8129308566E-04   -0.5831694660E+01
    0.1210814345E+00    0.8661892344E-04    0.8527139493E-04   -0.5870462037E+01
    0.1231164630E+00    0.9064499251E-04    0.8943867537E-04   -0.5918538502E+01
    0.1251856929E+00    0.9485211869E-04    0.9380347253E-04   -0.5979371029E+01
    0.1272896990E+00    0.9924808202E-04    0.9837468695E-04   -0.6058789263E+01
    0.1294290656E+00    0.1038409758E-03    0.1031615866E-03   -0.6167881370E+01
    0.1316043872E+00    0.1086392182E-03    0.1081738210E-03   -0.6332176252E+01
    0.1338162680E+00    0.1136515636E-03    0.1134214329E-03   -0.6638025377E+01
    0.1360653223E+00    0.1188871154E-03    0.1189148720E-03   -0.7556633943E+01
    0.1383521750E+00    0.1243553380E-03    0.1246650099E-03   -0.6509098220E+01
    0.1406774613E+00    0.1300660700E-03    0.1306831526E-03   -0.6209656711E+01
    0.1430418272E+00    0.1360295374E-03    0.1369810556E-03   -0.6021582880E+01
    0.1454459293E+00    0.1422563671E-03    0.1435709377E-03   -0.5881216098E+01
    0.1478904356E+00    0.1487576013E-03    0.1504654966E-03   -0.5767538759E+01
    0.1503760251E+00    0.1555447121E-03    0.1576779231E-03   -0.5670966184E+01
    0.1529033882E+00    0.1626296157E-03    0.1652219162E-03   -0.5586314655E+01
    0.1554732270E+00    0.1700246886E-03    0.1731116988E-03   -0.5510461935E+01
    0.1580862553E+00    0.1777427829E-03    0.1813620325E-03   -0.5441381467E+01
    0.1607431991E+00    0.1857972427E-03    0.1899882340E-03   -0.5377683244E+01
    0.1634447964E+00    0.1942019205E-03    0.1990061894E-03   -0.5318372696E+01
    0.1661917976E+00    0.2029711949E-03    0.2084323703E-03   -0.5262713872E+01
    0.1689849658E+00    0.2121199876E-03    0.2182838500E-03   -0.5210147065E+01
    0.1718250769E+00    0.2216637819E-03    0.2285783181E-03   -0.5160236947E+01
    0.1747129198E+00    0.2316186412E-03    0.2393340962E-03   -0.5112638457E+01
    0.1776492968E+00    0.2420012279E-03    0.2505701540E-03   -0.5067073603E+01
    0.1806350235E+00    0.2528288232E-03    0.2623061228E-03   -0.5023315390E+01
    0.1836709294E+00    0.2641193473E-03    0.2745623120E-03   -0.4981176191E+01
    0.1867578576E+00    0.2758913796E-03    0.2873597214E-03   -0.4940499373E+01
    0.1898966658E+00    0.2881641804E-03    0.3007200585E-03   -0.4901152911E+01
    0.1930882259E+00    0.3009577123E-03    0.3146657496E-03   -0.4863024722E+01
    0.1963334243E+00    0.3142926627E-03    0.3292199533E-03   -0.4826019011E+01
    0.1996331627E+00    0.3281904664E-03    0.3444065756E-03   -0.4790053339E+01
    0.2029883575E+00    0.3426733292E-03    0.3602502781E-03   -0.4755056509E+01
    0.2063999408E+00    0.3577642521E-03    0.3767764930E-03   -0.4720966691E+01
    0.2098688604E+00    0.3734870558E-03    0.3940114328E-03   -0.4687730017E+01
    0.2133960797E+00    0.3898664059E-03    0.4119820984E-03   -0.4655299458E+01
    0.2169825787E+00    0.4069278389E-03    0.4307162924E-03   -0.4623633791E+01
    0.2206293535E+00    0.4246977888E-03    0.4502426238E-03   -0.4592696897E+01
    0.2243374173E+00    0.4432036144E-03    0.4705905199E-03   -0.4562457037E+01
    0.2281078000E+00    0.4624736271E-03    0.4917902297E-03   -0.4532886359E+01
    0.2319415490E+00    0.4825371193E-03    0.5138728344E-03   -0.4503960391E+01
    0.2358397292E+00    0.5034243944E-03    0.5368702513E-03   -0.4475657673E+01
    0.2398034236E+00    0.5251667959E-03    0.5608152428E-03   -0.4447959386E+01
    0.2438337331E+00    0.5477967392E-03    0.5857414191E-03   -0.4420849106E+01
    0.2479317773E+00    0.5713477422E-03    0.6116832477E-03   -0.4394312496E+01
    0.2520986946E+00    0.5958544584E-03    0.6386760592E-03   -0.4368337102E+01
    0.2563356425E+00    0.6213527096E-03    0.6667560552E-03   -0.4342912145E+01
    0.2606437979E+00    0.6478795198E-03    0.6959603172E-03   -0.4318028338E+01
    0.2650243577E+00    0.6754731504E-03    0.7263268198E-03   -0.4293677705E+01
    0.2694785385E+00    0.7041731352E-03    0.7578944395E-03   -0.4269853452E+01
    0.2740075778E+00    0.7340203172E-03    0.7907029775E-03   -0.4246549775E+01
    0.2786127336E+00    0.7650568858E-03    0.8247931748E-03   -0.4223761760E+01
    0.2832952852E+00    0.7973264152E-03    0.8602067397E-03   -0.4201485226E+01
    0.2880565333E+00    0.8308739029E-03    0.8969863762E-03   -0.4179716596E+01
    0.2928978006E+00    0.8657458104E-03    0.9351758216E-03   -0.4158452765E+01
    0.2978204317E+00    0.9019901034E-03    0.9748198858E-03   -0.4137690987E+01
    0.3028257942E+00    0.9396562940E-03    0.1015964508E-02   -0.4117428711E+01
    0.3079152785E+00    0.9787954832E-03    0.1058656810E-02   -0.4097663478E+01
    0.3130902984E+00    0.1019460404E-02    0.1102945168E-02   -0.4078392775E+01
    0.3183522913E+00    0.1061705468E-02    0.1148879289E-02   -0.4059613920E+01
    0.3237027190E+00    0.1105586807E-02    0.1196510300E-02   -0.4041323890E+01
    0.3291430678E+00    0.1151162323E-02    0.1245890850E-02   -0.4023519215E+01
    0.3346748489E+00    0.1198491734E-02    0.1297075219E-02   -0.4006195835E+01
    0.3402995989E+00    0.1247636622E-02    0.1350119437E-02   -0.3989348954E+01
    0.3460188804E+00    0.1298660481E-02    0.1405081424E-02   -0.3972972896E+01
    0.3518342819E+00    0.1351628771E-02    0.1462021125E-02   -0.3957061005E+01
    0.3577474190E+00    0.1406608965E-02    0.1521000668E-02   -0.3941605474E+01
    0.3637599343E+00    0.1463670605E-02    0.1582084522E-02   -0.3926597254E+01
    0.3698734979E+00    0.1522885350E-02    0.1645339660E-02   -0.3912025925E+01
    0.3760898080E+00    0.1584327036E-02    0.1710835735E-02   -0.3897879609E+01
    0.3824105915E+00    0.1648071730E-02    0.1778645253E-02   -0.3884144877E+01
    0.3888376042E+00    0.1714197787E-02    0.1848843740E-02   -0.3870806696E+01
    0.3953726314E+00    0.1782785906E-02    0.1921509914E-02   -0.3857848373E+01
    0.4020174884E+00    0.1853919198E-02    0.1996725846E-02   -0.3845251573E+01
    0.4087740211E+00    0.1927683239E-02    0.2074577118E-02   -0.3832996300E+01
    0.4156441063E+00    0.2004166141E-02    0.2155152954E-02   -0.3821060982E+01
    0.4226296524E+00    0.2083458618E-02    0.2238546352E-02   -0.3809422549E+01
    0.4297325999E+00    0.2165654054E-02    0.2324854190E-02   -0.3798056565E+01
    0.4369549219E+00    0.2250848572E-02    0.2414177313E-02   -0.3786937385E+01
    0.4442986247E+00    0.2339141117E-02    0.2506620600E-02   -0.3776038389E+01
    0.4517657481E+00    0.2430633530E-02    0.2602293006E-02   -0.3765332218E+01
    0.4593583664E+00    0.2525430628E-02    0.2701307595E-02   -0.3754791032E+01
    0.4670785888E+00    0.2623640297E-02    0.2803781542E-02   -0.3744386839E+01
    0.4749285599E+00    0.2725373577E-02    0.2909836124E-02   -0.3734091799E+01
    0.4829104601E+00    0.2830744764E-02    0.3019596694E-02   -0.3723878573E+01
    0.4910265068E+00    0.2939871504E-02    0.3133192663E-02   -0.3713720610E+01
    0.4992789544E+00    0.3052874904E-02    0.3250757464E-02   -0.3703592479E+01
    0.5076700954E+00    0.3169879645E-02    0.3372428539E-02   -0.3693470124E+01
    0.5162022607E+00    0.3291014096E-02    0.3498347325E-02   -0.3683331088E+01
    0.5248778204E+00    0.3416410444E-02    0.3628659280E-02   -0.3673154683E+01
    0.5336991844E+00    0.3546204825E-02    0.3763513926E-02   -0.3662922085E+01
    0.5426688032E+00    0.3680537460E-02    0.3903064942E-02   -0.3652616346E+01
    0.5517891683E+00    0.3819552808E-02    0.4047470294E-02   -0.3642222354E+01
    0.5610628133E+00    0.3963399717E-02    0.4196892422E-02   -0.3631726684E+01
    0.5704923143E+00    0.4112231591E-02    0.4351498472E-02   -0.3621117411E+01
    0.5800802905E+00    0.4266206561E-02    0.4511460589E-02   -0.3610383851E+01
    0.5898294055E+00    0.4425487666E-02    0.4676956260E-02   -0.3599516247E+01
    0.5997423673E+00    0.4590243049E-02    0.4848168689E-02   -0.3588505484E+01
    0.6098219296E+00    0.4760646152E-02    0.5025287231E-02   -0.3577342742E+01
    0.6200708924E+00    0.4936875935E-02    0.5208507831E-02   -0.3566019235E+01
    0.6304921026E+00    0.5119117093E-02    0.5398033481E-02   -0.3554525968E+01
    0.6410884551E+00    0.5307560292E-02    0.5594074669E-02   -0.3542853581E+01
    0.6518628935E+00    0.5502402412E-02    0.5796849808E-02   -0.3530992282E+01
    0.6628184105E+00    0.5703846805E-02    0.6006585603E-02   -0.3518931917E+01
    0.6739580497E+00    0.5912103561E-02    0.6223517394E-02   -0.3506662100E+01
    0.6852849053E+00    0.6127389790E-02    0.6447889371E-02   -0.3494172533E+01
    0.6968021237E+00    0.6349929910E-02    0.6679954746E-02   -0.3481453376E+01
    0.7085129044E+00    0.6579955958E-02    0.6919975803E-02   -0.3468495735E+01
    0.7204205003E+00    0.6817707900E-02    0.7168223840E-02   -0.3455292228E+01
    0.7325282192E+00    0.7063433966E-02    0.7424979037E-02   -0.3441837555E+01
    0.7448394244E+00    0.7317390990E-02    0.7690530218E-02   -0.3428129092E+01
    0.7573575358E+00    0.7579844767E-02    0.7965174552E-02   -0.3414167420E+01
    0.7700860307E+00    0.7851070420E-02    0.8249217210E-02   -0.3399956781E+01
    0.7830284449E+00    0.8131352782E-02    0.8542971014E-02   -0.3385505397E+01
    0.7961883736E+00    0.8420986788E-02    0.8846756111E-02   -0.3370825633E+01
    0.8095694724E+00    0.8720277885E-02    0.9160899712E-02   -0.3355933993E+01
    0.8231754584E+00    0.9029542450E-02    0.9485735956E-02   -0.3340850901E+01
    0.8370101110E+00    0.9349108216E-02    0.9821605911E-02   -0.3325600306E+01
    0.8510772734E+00    0.9679314722E-02    0.1016885779E-01   -0.3310209093E+01
    0.8653808532E+00    0.1002051376E-01    0.1052784738E-01   -0.3294706356E+01
    0.8799248237E+00    0.1037306986E-01    0.1089893872E-01   -0.3279122546E+01
    0.8947132249E+00    0.1073736073E-01    0.1128250505E-01   -0.3263488507E+01
    0.9097501649E+00    0.1111377778E-01    0.1167893005E-01   -0.3247834523E+01
    0.9250398207E+00    0.1150272660E-01    0.1208860927E-01   -0.3232189350E+01
    0.9405864395E+00    0.1190462744E-01    0.1251195182E-01   -0.3216579286E+01
    0.9563943399E+00    0.1231991578E-01    0.1294938224E-01   -0.3201027406E+01
    0.9724679131E+00    0.1274904281E-01    0.1340134246E-01   -0.3185552858E+01
    0.9888116241E+00    0.1319247594E-01    0.1386829379E-01   -0.3170170344E+01
    0.1005430013E+01    0.1365069936E-01    0.1435071892E-01   -0.3154889825E+01
    0.1022327696E+01    0.1412421458E-01    0.1484912375E-01   -0.3139716407E+01
    0.1039509367E+01    0.1461354092E-01    0.1536403903E-01   -0.3124650397E+01
    0.1056979799E+01    0.1511921610E-01    0.1589602173E-01   -0.3109687636E+01
    0.1074743844E+01    0.1564179673E-01    0.1644565598E-01   -0.3094819985E+01
    0.1092806438E+01    0.1618185887E-01    0.1701355380E-01   -0.3080035944E+01
    0.1111172598E+01    0.1673999856E-01    0.1760035510E-01   -0.3065321538E+01
    0.1129847426E+01    0.1731683234E-01    0.1820672743E-01   -0.3050661190E+01
    0.1148836109E+01    0.1791299774E-01    0.1883336527E-01   -0.3036038711E+01
    0.1168143922E+01    0.1852915383E-01    0.1948098890E-01   -0.3021438297E+01
    0.1187776229E+01    0.1916598168E-01    0.2015034296E-01   -0.3006845476E+01
    0.1207738483E+01    0.1982418485E-01    0.2084219474E-01   -0.2992248003E+01
    0.1228036228E+01    0.2050448986E-01    0.2155733237E-01   -0.2977636588E+01
    0.1248675105E+01    0.2120764661E-01    0.2229656326E-01   -0.2963005361E+01
    0.1269660845E+01    0.2193442882E-01    0.2306071215E-01   -0.2948352345E+01
    0.1290999279E+01    0.2268563439E-01    0.2385062005E-01   -0.2933679419E+01
    0.1312696333E+01    0.2346208582E-01    0.2466714314E-01   -0.2918992296E+01
    0.1334758035E+01    0.2426463046E-01    0.2551115245E-01   -0.2904300057E+01
    0.1357190514E+01    0.2509414086E-01    0.2638353400E-01   -0.2889614645E+01
    0.1380000000E+01    0.2595151503E-01    0.2728518952E-01   -0.2874950157E+01
    0.1403192830E+01    0.2683767660E-01    0.2821703801E-01   -0.2860321928E+01
    0.1426775446E+01    0.2775357498E-01    0.2918001768E-01   -0.2845745668E+01
    0.1450754400E+01    0.2870018554E-01    0.3017508858E-01   -0.2831236528E+01
    0.1475136351E+01    0.2967850954E-01    0.3120323534E-01   -0.2816808250E+01
    0.1499928074E+01    0.3068957423E-01    0.3226547062E-01   -0.2802472338E+01
    0.1525136455E+01    0.3173443267E-01    0.3336283802E-01   -0.2788237479E+01
    0.1550768496E+01    0.3281416362E-01    0.3449641520E-01   -0.2774109056E+01
    0.1576831318E+01    0.3392987128E-01    0.3566731650E-01   -0.2760088879E+01
    0.1603332160E+01    0.3508268497E-01    0.3687669487E-01   -0.2746175166E+01
    0.1630278384E+01    0.3627375871E-01    0.3812574308E-01   -0.2732362684E+01
    0.1657677475E+01    0.3750427069E-01    0.3941569389E-01   -0.2718643148E+01
    0.1685537044E+01    0.3877542264E-01    0.4074781915E-01   -0.2705005774E+01
    0.1713864830E+01    0.4008843911E-01    0.4212342777E-01   -0.2691438006E+01
    0.1742668703E+01    0.4144456657E-01    0.4354386250E-01   -0.2677926337E+01
    0.1771956663E+01    0.4284507245E-01    0.4501049546E-01   -0.2664457253E+01
    0.1801736846E+01    0.4429124398E-01    0.4652472308E-01   -0.2651018106E+01
    0.1832017524E+01    0.4578438690E-01    0.4808795990E-01   -0.2637598020E+01
    0.1862807110E+01    0.4732582404E-01    0.4970163213E-01   -0.2624188643E+01
    0.1894114156E+01    0.4891689369E-01    0.5136717059E-01   -0.2610784834E+01
    0.1925947358E+01    0.5055894783E-01    0.5308600407E-01   -0.2597385092E+01
    0.1958315560E+01    0.5225335013E-01    0.5485955304E-01   -0.2583991775E+01
    0.1991227752E+01    0.5400147379E-01    0.5668922360E-01   -0.2570611160E+01
    0.2024693077E+01    0.5580469912E-01    0.5857640293E-01   -0.2557253180E+01
    0.2058720832E+01    0.5766441097E-01    0.6052245548E-01   -0.2543931012E+01
    0.2093320468E+01    0.5958199583E-01    0.6252872025E-01   -0.2530660478E+01
    0.2128501598E+01    0.6155883874E-01    0.6459650992E-01   -0.2517459239E+01
    0.2164273993E+01    0.6359631993E-01    0.6672711034E-01   -0.2504346005E+01
    0.2200647590E+01    0.6569581116E-01    0.6892178183E-01   -0.2491339585E+01
    0.2237632495E+01    0.6785867176E-01    0.7118176091E-01   -0.2478458008E+01
    0.2275238980E+01    0.7008624440E-01    0.7350826208E-01   -0.2465717751E+01
    0.2313477492E+01    0.7237985050E-01    0.7590248032E-01   -0.2453132993E+01
    0.2352358653E+01    0.7474078527E-01    0.7836559259E-01   -0.2440715074E+01
    0.2391893263E+01    0.7717031247E-01    0.8089875849E-01   -0.2428472141E+01
    0.2432092306E+01    0.7966965869E-01    0.8350311972E-01   -0.2416408947E+01
    0.2472966946E+01    0.8224000732E-01    0.8617979700E-01   -0.2404526962E+01
    0.2514528540E+01    0.8488249204E-01    0.8892988578E-01   -0.2392824544E+01
    0.2556788631E+01    0.8759818988E-01    0.9175444814E-01   -0.2381297474E+01
    0.2599758960E+01    0.9038811387E-01    0.9465450321E-01   -0.2369939515E+01
    0.2643451462E+01    0.9325320515E-01    0.9763101380E-01   -0.2358743225E+01
    0.2687878274E+01    0.9619432456E-01    0.1006848712E+00   -0.2347700788E+01
    0.2733051738E+01    0.9921224383E-01    0.1038168773E+00   -0.2336804931E+01
    0.2778984403E+01    0.1023076360E+00    0.1070277247E+00   -0.2326049837E+01
    0.2825689027E+01    0.1054810657E+00    0.1103179753E+00   -0.2315432032E+01
    0.2873178584E+01    0.1087329779E+00    0.1136880382E+00   -0.2304951057E+01
    0.2921466267E+01    0.1120636875E+00    0.1171381477E+00   -0.2294610150E+01
    0.2970565488E+01    0.1154733668E+00    0.1206683408E+00   -0.2284416618E+01
    0.3020489887E+01    0.1189620332E+00    0.1242784371E+00   -0.2274382036E+01
    0.3071253332E+01    0.1225295360E+00    0.1279680186E+00   -0.2264522257E+01
    0.3122869924E+01    0.1261755423E+00    0.1317364135E+00   -0.2254857162E+01
    0.3175354002E+01    0.1298995224E+00    0.1355826809E+00   -0.2245410229E+01
    0.3228720144E+01    0.1337007342E+00    0.1395055983E+00   -0.2236207945E+01
    0.3282983175E+01    0.1375782070E+00    0.1435036515E+00   -0.2227279065E+01
    0.3338158169E+01    0.1415307247E+00    0.1475750268E+00   -0.2218653835E+01
    0.3394260452E+01    0.1455568072E+00    0.1517176039E+00   -0.2210363123E+01
    0.3451305609E+01    0.1496546924E+00    0.1559289500E+00   -0.2202437654E+01
    0.3509309485E+01    0.1538223163E+00    0.1602063140E+00   -0.2194907281E+01
    0.3568288194E+01    0.1580572924E+00    0.1645466192E+00   -0.2187800351E+01
    0.3628258118E+01    0.1623568905E+00    0.1689464547E+00   -0.2181143307E+01
    0.3689235916E+01    0.1667180147E+00    0.1734020627E+00   -0.2174960440E+01
    0.3751238528E+01    0.1711371796E+00    0.1779093234E+00   -0.2169273826E+01
    0.3814283176E+01    0.1756104874E+00    0.1824637341E+00   -0.2164103632E+01
    0.3878387373E+01    0.1801336020E+00    0.1870603840E+00   -0.2159468483E+01
    0.3943568927E+01    0.1847017244E+00    0.1916939231E+00   -0.2155386236E+01
    0.4009845943E+01    0.1893095656E+00    0.1963585268E+00   -0.2151874878E+01
    0.4077236833E+01    0.1939513199E+00    0.2010478544E+00   -0.2148953680E+01
    0.4145760316E+01    0.1986206369E+00    0.2057550040E+00   -0.2146644547E+01
    0.4215435427E+01    0.2033105934E+00    0.2104724643E+00   -0.2144973514E+01
    0.4286281522E+01    0.2080136645E+00    0.2151920639E+00   -0.2143972384E+01
    0.4358318279E+01    0.2127216947E+00    0.2199049201E+00   -0.2143680509E+01
    0.4431565710E+01    0.2174258681E+00    0.2246013891E+00   -0.2144146563E+01
    0.4506044161E+01    0.2221166794E+00    0.2292710180E+00   -0.2145430512E+01
    0.4581774322E+01    0.2267839046E+00    0.2339025017E+00   -0.2147605590E+01
    0.4658777229E+01    0.2314165720E+00    0.2384836446E+00   -0.2150760446E+01
    0.4737074272E+01    0.2360029341E+00    0.2430013301E+00   -0.2155001489E+01
    0.4816687202E+01    0.2405304404E+00    0.2474414966E+00   -0.2160455574E+01
    0.4897638132E+01    0.2449857113E+00    0.2517891231E+00   -0.2167273243E+01
    0.4979949551E+01    0.2493545135E+00    0.2560282225E+00   -0.2175632735E+01
    0.5063644322E+01    0.2536217381E+00    0.2601418437E+00   -0.2185745370E+01
    0.5148745695E+01    0.2577713802E+00    0.2641120817E+00   -0.2197862689E+01
    0.5235277311E+01    0.2617865227E+00    0.2679200945E+00   -0.2212286547E+01
    0.5323263205E+01    0.2656493223E+00    0.2715461257E+00   -0.2229383355E+01
    0.5412727819E+01    0.2693410011E+00    0.2749695326E+00   -0.2249604902E+01
    0.5503696005E+01    0.2728418418E+00    0.2781688171E+00   -0.2273519317E+01
    0.5596193032E+01    0.2761311892E+00    0.2811216590E+00   -0.2301858568E+01
    0.5690244595E+01    0.2791874578E+00    0.2838049505E+00   -0.2335593784E+01
    0.5785876820E+01    0.2819881461E+00    0.2861948314E+00   -0.2376059975E+01
    0.5883116271E+01    0.2845098599E+00    0.2882667249E+00   -0.2425174406E+01
    0.5981989961E+01    0.2867283431E+00    0.2899953743E+00   -0.2485846718E+01
    0.6082525354E+01    0.2886185198E+00    0.2913548811E+00   -0.2562826554E+01
    0.6184750379E+01    0.2901545455E+00    0.2923187478E+00   -0.2664702141E+01
    0.6288693431E+01    0.2913098721E+00    0.2928599253E+00   -0.2809653382E+01
    0.6394383384E+01    0.2920573237E+00    0.2929508703E+00   -0.3048882809E+01
    0.6501849598E+01    0.2923691882E+00    0.2925636136E+00   -0.3711246958E+01
    0.6611121925E+01    0.2922173221E+00    0.2916698458E+00   -0.3261634658E+01
    0.6722230718E+01    0.2915732727E+00    0.2902410210E+00   -0.2875413731E+01
    0.6835206842E+01    0.2904084162E+00    0.2882484858E+00   -0.2665560234E+01
    0.6950081680E+01    0.2886941140E+00    0.2856636336E+00   -0.2518488528E+01
