 O 
 PADE
 relativistic 
 20.0      10.0 80.0       	 rmax,aa,bb 
       1.38d0   2.75d0		 rcov,rprb
    1    9			 number of core and valence orbitals
    2    0     2.00      0.00		   
    3    0     0.00      0.00		   
    4    0     0.00      0.00		   
    2    1     4.00      0.00		   
    3    1     0.00      0.00		   
    4    1     0.00      0.00		   
    3    2     0.00      0.00		   
    4    2     0.00      0.00		   
    4    3     0.00      0.00		   

